{
  "status": "ok",
  "meta": {
    "page": 1,
    "perPage": 10,
    "total": 42,
    "totalPages": 5,
    "timestamp": "2026-02-22T12:00:00Z"
  },
  "data": {
    "users": [
      {
        "id": 1,
        "name": "Alice Johnson",
        "email": "alice@example.com",
        "age": 30,
        "active": true,
        "role": "admin",
        "address": {
          "street": "123 Main St",
          "city": "Springfield",
          "state": "IL",
          "zip": "62701",
          "country": "US"
        },
        "tags": ["developer", "team-lead"],
        "lastLogin": "2026-02-20T08:30:00Z",
        "preferences": {
          "theme": "dark",
          "language": "en",
          "notifications": true,
          "fontSize": 14
        }
      },
      {
        "id": 2,
        "name": "Bob Smith",
        "email": "bob@example.com",
        "age": 25,
        "active": true,
        "role": "developer",
        "address": {
          "street": "456 Oak Ave",
          "city": "Portland",
          "state": "OR",
          "zip": "97201",
          "country": "US"
        },
        "tags": ["developer", "frontend"],
        "lastLogin": "2026-02-21T14:15:00Z",
        "preferences": {
          "theme": "light",
          "language": "en",
          "notifications": false,
          "fontSize": 13
        }
      },
      {
        "id": 3,
        "name": "Carol Williams",
        "email": "carol@example.com",
        "age": 35,
        "active": false,
        "role": "designer",
        "address": {
          "street": "789 Pine Rd",
          "city": "Austin",
          "state": "TX",
          "zip": "73301",
          "country": "US"
        },
        "tags": ["designer", "ux"],
        "lastLogin": null,
        "preferences": {
          "theme": "system",
          "language": "es",
          "notifications": true,
          "fontSize": 15
        }
      }
    ],
    "departments": [
      {
        "id": "eng",
        "name": "Engineering",
        "headCount": 24,
        "budget": 1500000.50,
        "location": "Building A, Floor 3"
      },
      {
        "id": "design",
        "name": "Design",
        "headCount": 8,
        "budget": 500000.00,
        "location": "Building B, Floor 1"
      }
    ],
    "config": {
      "maxUploadSize": 10485760,
      "allowedFormats": ["jpg", "png", "gif", "webp", "svg"],
      "features": {
        "darkMode": true,
        "exportPdf": false,
        "batchImport": true,
        "apiVersion": "v2"
      }
    }
  }
}
